version="0.1.0"
tags={
	"Buildings"
	"Military"
	"Events"
	"Spaceships"
	"Species"
	"Galaxy Generation"
	"Gameplay"
	"Graphics"
	"Leaders"
	"Translation"
}
name="Here be Foo"
picture="here_be_foo_icon.png"
supported_version="3.3.*"